905011 741411 525
965709 339151 525
887691 230036 525
40139 649349 509
850043 879114 432
529194 541778 408
24373 692750 509
380469 249874 441
46824 970191 525
868826 208067 525
308643 322577 384
121168 765200 509
146257 935570 525
695043 975159 525
45371 990288 525
740649 851681 525
263526 236242 407
863610 592974 525
950431 447229 525
864644 359507 525
981638 788163 525
646334 125485 509
131095 822602 509
207082 622619 470
605343 986512 525
398751 64095 443
197298 152649 383
641412 64923 509
666944 910672 525
616330 606483 447
207366 530570 470
969235 776155 525
373978 382599 423
350900 503625 449
139578 283960 443
532961 16700 470
247063 792169 509
836684 214881 509
179577 421859 449
181027 77610 383
429476 325705 449
7311 461982 449
770862 691631 504
523731 220683 470
885427 844818 432
680042 873424 525
815780 995642 525
859987 550361 525
616575 914326 525
929136 64624 525
514035 921200 525
589583 338084 470
845836 311627 525
394463 91407 443
496605 781966 509
874958 569489 525
427290 640119 509
668992 757887 504
235100 313506 407
237956 925195 525
33372 230762 443
564449 559640 359
797902 505293 509
827012 184459 509
54026 905068 525
770081 692432 504
100388 485836 449
604220 344270 470
881675 784705 525
108884 214945 383
897108 455352 525
270751 424864 449
961509 220387 525
175906 805696 509
638325 901934 525
907062 812415 525
979029 469559 525
716615 383288 509
834265 742361 468
684714 848891 525
704310 444463 509
389864 221317 443
419403 35715 449
441076 271326 449
117222 229490 386
106102 684192 509
613167 468471 470
215175 453893 449
392426 932710 525
142884 865605 525
210140 743898 509
243222 304929 407
586531 300717 470
208866 419678 449
757167 549061 509
908279 260791 525
424027 200522 449
724654 219168 509
80016 900008 525
861368 46362 525
234345 40730 443
330501 369264 441
128686 627983 509
897070 733569 525
982405 1999 525
192969 818714 509
829390 121514 509
406421 182772 443
841467 438255 525
98614 85459 333
345050 325629 366
658039 311984 509
161572 214213 373
237093 540861 470
731089 613665 509
503163 522743 470
274951 447660 449
371287 954002 525
765431 213812 509
925130 70442 525
985736 600300 525
635156 108039 509
968486 696078 525
480385 247312 449
573118 619713 447
973599 545161 525
944159 499838 525
497526 309044 449
869628 734736 525
56908 976068 525
615566 808097 509
353098 259599 441
469973 840767 525
408506 583719 470
334970 556553 470
221055 494612 449
874969 369147 525
854788 907948 445
572742 174313 470
55920 779912 509
196610 502893 449
256175 410211 449
492404 571304 470
935529 770175 525
559737 197078 470
993601 874580 507
918554 809518 525
769950 313723 509
510434 626340 509
431173 338610 449
871604 478424 525
97695 584681 470
237041 106689 443
185868 909256 525
788286 377936 509
311348 484095 449
669834 672582 367
312083 710411 509
849563 231507 525
103987 909904 525
140561 424975 449
804283 3899 509
247514 968220 525
643683 944249 525
247917 858966 525
197369 285845 443
280992 71629 443
62361 535254 470
202452 795154 509
546074 801294 509
843207 77144 525
46473 513600 470
166734 572986 470
387178 954827 525
618882 631709 509
350619 985850 525
987619 320749 525
515155 273190 470
92956 991966 525
651188 689894 442
192586 55804 383
780771 888036 525
696434 57044 509
169804 475111 449
830334 290284 509
592342 361178 470
308062 658843 509
860825 493807 525
439873 557655 470
848882 702412 525
636087 455669 509
830740 134712 509
160259 499131 449
857444 627585 525
193043 710159 509
436988 506215 444
54445 486266 449
334186 409092 441
893544 479842 525
901513 492979 525
700588 229173 509
567230 321572 470
551966 611593 434
76822 627457 509
666700 146358 509
124766 881429 525
149359 895448 525
498688 632065 509
733810 64513 509
871129 711930 525
602863 604575 372
285259 745688 509
236065 205219 443
453961 20908 449
589831 500921 470
607088 425276 470
805909 988352 525
579869 632758 509
136475 452250 449
867887 104252 525
973886 654496 525
432414 37690 449
829574 553173 509
161180 649848 509
171152 215257 373
917446 161056 525
726852 575842 509
189461 686013 509
392200 244541 441
205060 699860 509
563774 351334 470
727761 501280 509
359926 295917 441
959018 644244 525
455971 227719 449
881448 764487 525
984014 928412 507
859331 490044 525
896264 407165 525
688107 648994 442
632357 213309 509
720215 55509 509
